{

  "profiles": {
    "kestrel": {
      "commandName": "Project",
      "environmentVariables": {
        "CONFIGURATION_NAME": "payment-processor",
        "CONFIGURATION_URL": "http://10.100.0.22:7001",
        "EVENTHUB_URL": "http://10.100.0.22:7002",
        "NATS_URL": "nats://10.100.0.13:4222",
        "TENANT_URL": "http://10.100.0.22:7003",
        "LOG_LEVEL": "Debug"
      }
    }
  }
}